%YAML 1.1
%TAG !u! tag:unity3d.com,2011:
--- !u!114 &11400000
MonoBehaviour:
  m_ObjectHideFlags: 0
  m_CorrespondingSourceObject: {fileID: 0}
  m_PrefabInstance: {fileID: 0}
  m_PrefabAsset: {fileID: 0}
  m_GameObject: {fileID: 0}
  m_Enabled: 1
  m_EditorHideFlags: 0
  m_Script: {fileID: 11500000, guid: c98264244f4b81841b42930b7d6ae965, type: 3}
  m_Name: Miecz
  m_EditorClassIdentifier: 
  Id: 0
  uiDisplay: {fileID: -6842126897055640158, guid: a0a8c40dc6d874f4f8f66a9d0854378f, type: 3}
  type: 1
  description: "Miecz poszukiwacza przyg\xF3d. Pami\u0105tka po ojcu."
  buffs:
  - attribute: 3
    value: 0
    min: 4
    max: 20
  - attribute: 0
    value: 0
    min: 5
    max: 12
