%YAML 1.1
%TAG !u! tag:unity3d.com,2011:
--- !u!114 &11400000
MonoBehaviour:
  m_ObjectHideFlags: 0
  m_CorrespondingSourceObject: {fileID: 0}
  m_PrefabInstance: {fileID: 0}
  m_PrefabAsset: {fileID: 0}
  m_GameObject: {fileID: 0}
  m_Enabled: 1
  m_EditorHideFlags: 0
  m_Script: {fileID: 11500000, guid: bb8d323efdfec4141885b2d9a5afd25c, type: 3}
  m_Name: Database
  m_EditorClassIdentifier: 
  Items:
  - {fileID: 11400000, guid: 944ddf080ee631244914ac8b8fd61f0a, type: 2}
  - {fileID: 11400000, guid: 0deaa75f9b0ae704daa5b6000b70f286, type: 2}
  - {fileID: 11400000, guid: 837fb9c39b9694b428d21d8adc9a9605, type: 2}
  - {fileID: 11400000, guid: 91f45f9c0ea21d2479763df4a10bbba2, type: 2}
